{
	"version": 1,
	"changelists": [
		{
			"guid": "00000000000000000000000000000000",
			"description": "Default Uncontrolled Changelist",
			"files": [
				"C:/Repository/Unreal_git/Practic4/Content/BP_One_Cube.uasset",
				"C:/Repository/Unreal_git/Practic4/Content/Practic4_HLOD0_Instancing.uasset",
				"C:/Repository/Unreal_git/Practic4/Content/__ExternalActors__/Practic4/6/CG/X0Q6UYPPXLEYZ97JEBGCNE.uasset",
				"C:/Repository/Unreal_git/Practic4/Content/__ExternalObjects__/Practic4/4/FY/YN9W8EAS8HVTXNH203HKZW.uasset",
				"C:/Repository/Unreal_git/Practic4/Content/__ExternalObjects__/Practic4/2/IU/F23DDICM5FSDVZGWNUQWQZ.uasset",
				"C:/Repository/Unreal_git/Practic4/Content/__ExternalObjects__/Practic4/1/WE/BL7IZ6AK7BFLIBQ1VBSQ3Z.uasset",
				"C:/Repository/Unreal_git/Practic4/Content/__ExternalObjects__/Practic4/5/O3/I1F91M6BMI9M5SYI7EKGRH.uasset",
				"C:/Repository/Unreal_git/Practic4/Content/__ExternalObjects__/Practic4/6/YH/5P42C4VK9JBY0446Q8B34C.uasset",
				"C:/Repository/Unreal_git/Practic4/Content/__ExternalObjects__/Practic4/2/6Z/EQX87CNESGKU06F19CXYM3.uasset",
				"C:/Repository/Unreal_git/Practic4/Content/__ExternalActors__/Practic4/9/FI/UGXQNAX4WMY6IMC3NP2A6H.uasset",
				"C:/Repository/Unreal_git/Practic4/Content/__ExternalActors__/Practic4/C/SU/H3GGBDHCU1VY5Q0H5FXC91.uasset",
				"C:/Repository/Unreal_git/Practic4/Content/__ExternalActors__/Practic4/8/W0/0AVBNUZ7DN8FV2I0AO8C8P.uasset",
				"C:/Repository/Unreal_git/Practic4/Content/__ExternalActors__/Practic4/7/KK/WBAZZSSV5LDQU3P30UINX4.uasset",
				"C:/Repository/Unreal_git/Practic4/Content/__ExternalActors__/Practic4/2/KX/ZC5SUAL0R5YCP98941T8UI.uasset",
				"C:/Repository/Unreal_git/Practic4/Content/__ExternalActors__/Practic4/8/TC/JMFP10VIWLJ67WZLJ8XCSQ.uasset",
				"C:/Repository/Unreal_git/Practic4/Content/__ExternalActors__/Practic4/D/T2/MF31KW4S8A239LCGN5L2RT.uasset",
				"C:/Repository/Unreal_git/Practic4/Content/__ExternalActors__/Practic4/2/PD/8BOONCW90AF9F1DLUNESNE.uasset",
				"C:/Repository/Unreal_git/Practic4/Content/__ExternalActors__/Practic4/4/GH/BDSR7YDTO3P119DCKMCAXH.uasset",
				"C:/Repository/Unreal_git/Practic4/Content/__ExternalActors__/Practic4/4/UX/4B3U1SST5JRL30JLVWXP5W.uasset",
				"C:/Repository/Unreal_git/Practic4/Content/__ExternalActors__/Practic4/D/13/KAVJG6YJ9WMB9P9SY0CVSG.uasset",
				"C:/Repository/Unreal_git/Practic4/Content/__ExternalActors__/Practic4/0/JT/SK0E5GW43O9MQNPVSHX39B.uasset",
				"C:/Repository/Unreal_git/Practic4/Content/__ExternalActors__/Practic4/9/DE/FFO26Z4OH942XIJOOOM0OF.uasset",
				"C:/Repository/Unreal_git/Practic4/Content/__ExternalActors__/Practic4/2/IO/8G5KMAUTHMKR8ABU1I0QLI.uasset",
				"C:/Repository/Unreal_git/Practic4/Content/__ExternalActors__/Practic4/A/05/QJUU30607XCC37HQSVDLQ6.uasset",
				"C:/Repository/Unreal_git/Practic4/Content/__ExternalActors__/Practic4/4/J3/5N8AZDM9RRRPSRDQTY011G.uasset",
				"C:/Repository/Unreal_git/Practic4/Content/__ExternalActors__/Practic4/0/5K/S5F0OG8SSEQNM4VZO57JRK.uasset",
				"C:/Repository/Unreal_git/Practic4/Content/__ExternalActors__/Practic4/2/WA/68YCB654TBCPYLWYVQODMP.uasset",
				"C:/Repository/Unreal_git/Practic4/Content/__ExternalActors__/Practic4/0/RG/PYBPWMZXY2TBYVDSX3MT98.uasset",
				"C:/Repository/Unreal_git/Practic4/Content/__ExternalActors__/Practic4/B/TK/UO8L4OGS9GOILON1U9LZ7W.uasset",
				"C:/Repository/Unreal_git/Practic4/Content/__ExternalActors__/Practic4/1/BN/TL5XN7AF5Y1H9CPGBMVDFO.uasset",
				"C:/Repository/Unreal_git/Practic4/Content/__ExternalActors__/Practic4/A/89/SH802A2P0EQ0DFPKVXVR6F.uasset",
				"C:/Repository/Unreal_git/Practic4/Content/__ExternalActors__/Practic4/B/WC/KQ29TVGH0TFY3C95RPQX63.uasset",
				"C:/Repository/Unreal_git/Practic4/Content/__ExternalActors__/Practic4/A/1O/RH70ZE7ENOB7VZ9XF3BO43.uasset",
				"C:/Repository/Unreal_git/Practic4/Content/__ExternalActors__/Practic4/E/OJ/NHH3I6KZM7PENMNKM9K6NZ.uasset",
				"C:/Repository/Unreal_git/Practic4/Content/__ExternalActors__/Practic4/5/QW/KGVH2J69C2SKKFBMGUVND3.uasset",
				"C:/Repository/Unreal_git/Practic4/Content/__ExternalActors__/Practic4/A/YA/DF91V9DC3D3RTDUT0T098R.uasset",
				"C:/Repository/Unreal_git/Practic4/Content/__ExternalActors__/Practic4/7/EU/B7ET5B86BITPTSEKLTTBKK.uasset",
				"C:/Repository/Unreal_git/Practic4/Content/__ExternalActors__/Practic4/1/6K/3OIFXWBO5S2QJEZ8RDM17T.uasset",
				"C:/Repository/Unreal_git/Practic4/Content/__ExternalActors__/Practic4/3/2D/TF1W8PA38XFUIU798MXPZ7.uasset",
				"C:/Repository/Unreal_git/Practic4/Content/__ExternalActors__/Practic4/C/V7/5OH9MBI71M7F3CPMIG22A3.uasset",
				"C:/Repository/Unreal_git/Practic4/Content/__ExternalActors__/Practic4/7/5C/KXZFETD847G4GZGCPLFGPC.uasset",
				"C:/Repository/Unreal_git/Practic4/Content/__ExternalActors__/Practic4/1/YN/0EKUEGBX79TSTSKJFRS07K.uasset",
				"C:/Repository/Unreal_git/Practic4/Content/__ExternalActors__/Practic4/3/6C/FV9FJ247MLCFOOBL1LWKYJ.uasset",
				"C:/Repository/Unreal_git/Practic4/Content/__ExternalActors__/Practic4/5/TH/AKTII49BLZO3SDJ68F9XS4.uasset",
				"C:/Repository/Unreal_git/Practic4/Content/__ExternalActors__/Practic4/D/OY/IDVIKJ6AFY9AT8GW0ZOW2A.uasset",
				"C:/Repository/Unreal_git/Practic4/Content/__ExternalActors__/Practic4/3/Z8/0GCUL5COJ2NLC07GGPTT0Q.uasset",
				"C:/Repository/Unreal_git/Practic4/Content/__ExternalActors__/Practic4/0/FW/6QN3UFDPDPQF8G6Z12AO60.uasset",
				"C:/Repository/Unreal_git/Practic4/Content/__ExternalActors__/Practic4/C/OR/I6GIJ3HFUV2YMNGF50RS3Z.uasset",
				"C:/Repository/Unreal_git/Practic4/Content/__ExternalActors__/Practic4/5/GL/IWLA2EOD7GV5STF95IDO1I.uasset",
				"C:/Repository/Unreal_git/Practic4/Content/__ExternalActors__/Practic4/1/E4/7VI1J0UKKNBIZJBGWKBTEI.uasset",
				"C:/Repository/Unreal_git/Practic4/Content/__ExternalActors__/Practic4/E/GB/O6JXH30EB8PW4SQIQ5K9P0.uasset",
				"C:/Repository/Unreal_git/Practic4/Content/__ExternalActors__/Practic4/E/ZV/578PZ9PO65RQTEWSDIHGUQ.uasset",
				"C:/Repository/Unreal_git/Practic4/Content/__ExternalActors__/Practic4/3/3Y/D0MXHT4RRMIA7OTFVAUFZD.uasset",
				"C:/Repository/Unreal_git/Practic4/Content/__ExternalActors__/Practic4/E/AS/M5O2NX5ANCLRUEVILAIZIP.uasset",
				"C:/Repository/Unreal_git/Practic4/Content/__ExternalActors__/Practic4/B/3G/U1N94S8AB4EJHZJQJAWORO.uasset",
				"C:/Repository/Unreal_git/Practic4/Content/__ExternalActors__/Practic4/1/MH/3VKQ7FBT5S2XYC6VCMUIA5.uasset",
				"C:/Repository/Unreal_git/Practic4/Content/__ExternalActors__/Practic4/7/HM/IOASG3448ZDU23TYHXVC68.uasset",
				"C:/Repository/Unreal_git/Practic4/Content/__ExternalActors__/Practic4/A/ZO/GKGN8FDTGRUCT5QXHKSZ6G.uasset",
				"C:/Repository/Unreal_git/Practic4/Content/__ExternalActors__/Practic4/B/Y0/5BX9EHFP1NFHVDRHUA70TO.uasset",
				"C:/Repository/Unreal_git/Practic4/Content/__ExternalActors__/Practic4/2/Z7/K7221C8Y688HRT0U8N8JYX.uasset",
				"C:/Repository/Unreal_git/Practic4/Content/__ExternalActors__/Practic4/6/IT/9FB1P9WKEKEINAP5P4I2KN.uasset",
				"C:/Repository/Unreal_git/Practic4/Content/__ExternalActors__/Practic4/B/4J/1ARE5MON2L0E98T7AB5T88.uasset",
				"C:/Repository/Unreal_git/Practic4/Content/__ExternalActors__/Practic4/8/IU/7TI4Q8CXXXV6PZ6CA160BK.uasset",
				"C:/Repository/Unreal_git/Practic4/Content/__ExternalActors__/Practic4/7/J0/FF6AZ74QM2YAFF2FHAA6O8.uasset",
				"C:/Repository/Unreal_git/Practic4/Content/__ExternalActors__/Practic4/0/51/HIUKUD50FUPXG3RXIQ34B3.uasset",
				"C:/Repository/Unreal_git/Practic4/Content/__ExternalActors__/Practic4/9/R3/13VGQQKVLPNHKZ9DR3BPQW.uasset",
				"C:/Repository/Unreal_git/Practic4/Content/__ExternalActors__/Practic4/3/1L/7ABNZQDBOSTQQ7CEEBZHYY.uasset",
				"C:/Repository/Unreal_git/Practic4/Content/__ExternalActors__/Practic4/A/3A/6GX2Y19I5DCAECLD88WIJ9.uasset",
				"C:/Repository/Unreal_git/Practic4/Content/__ExternalActors__/Practic4/A/VN/992JDMFJ8CCHLIVEY5N094.uasset",
				"C:/Repository/Unreal_git/Practic4/Content/__ExternalActors__/Practic4/1/3A/IMYGWEQF866DB24N4T9XIJ.uasset",
				"C:/Repository/Unreal_git/Practic4/Content/__ExternalActors__/Practic4/0/7W/1E9PE3IMXRUFLV1JFV2ADS.uasset",
				"C:/Repository/Unreal_git/Practic4/Content/__ExternalActors__/Practic4/E/FY/EXC1VWJW6TJ1MC0Y2TP0CT.uasset",
				"C:/Repository/Unreal_git/Practic4/Content/__ExternalActors__/Practic4/1/8Z/PZOONCJX5TCPYRYNOL1D4E.uasset",
				"C:/Repository/Unreal_git/Practic4/Content/__ExternalActors__/Practic4/5/TH/ZEMFG5K8YILC9Z2ZDWP7RS.uasset",
				"C:/Repository/Unreal_git/Practic4/Content/__ExternalActors__/Practic4/C/7U/2ISGB4P393ZXABNETR5PD1.uasset",
				"C:/Repository/Unreal_git/Practic4/Content/__ExternalActors__/Practic4/0/OS/A252AQE5FYA89WMM7HZU19.uasset",
				"C:/Repository/Unreal_git/Practic4/Content/__ExternalActors__/Practic4/A/Y3/RBTB6GVZ4XDG9BJIBUUZJK.uasset",
				"C:/Repository/Unreal_git/Practic4/Content/__ExternalActors__/Practic4/2/SR/O0SHMJZY74F9DO0EQF2VEN.uasset",
				"C:/Repository/Unreal_git/Practic4/Content/__ExternalActors__/Practic4/1/06/12F6EZUO2JO9ZYN8J8GTJQ.uasset",
				"C:/Repository/Unreal_git/Practic4/Content/__ExternalActors__/Practic4/B/C0/ERFW6L3I3PIXPAI0BJGD3W.uasset",
				"C:/Repository/Unreal_git/Practic4/Content/__ExternalActors__/Practic4/1/9V/35CI2IXE86QD1VWOKM4B0O.uasset",
				"C:/Repository/Unreal_git/Practic4/Content/__ExternalActors__/Practic4/2/LC/Q4Y1RS8VYKKC8QRZTK1IMT.uasset",
				"C:/Repository/Unreal_git/Practic4/Content/__ExternalActors__/Practic4/6/QJ/ZSY82RX4IINC09I4BP4IA3.uasset",
				"C:/Repository/Unreal_git/Practic4/Content/__ExternalActors__/Practic4/9/U2/CIKW8Z1LPS9EB8OW8UTQQA.uasset",
				"C:/Repository/Unreal_git/Practic4/Content/__ExternalActors__/Practic4/D/IM/TSCKFJSOPXA635FQVMXKJA.uasset",
				"C:/Repository/Unreal_git/Practic4/Content/__ExternalActors__/Practic4/C/JC/676T24SSILF7J5MYHDF81Q.uasset",
				"C:/Repository/Unreal_git/Practic4/Content/__ExternalActors__/Practic4/9/V8/PTCMHCSYKNMRCEWPY8ZJY3.uasset",
				"C:/Repository/Unreal_git/Practic4/Content/__ExternalActors__/Practic4/D/DZ/0NSPPPWVDCM4YGSZ6CBBC3.uasset",
				"C:/Repository/Unreal_git/Practic4/Content/__ExternalActors__/Practic4/C/IQ/ARBODTSL6ZDLPZIDYT4RBF.uasset",
				"C:/Repository/Unreal_git/Practic4/Content/__ExternalActors__/Practic4/8/OP/U23AHPR730REPKBMJRENHC.uasset",
				"C:/Repository/Unreal_git/Practic4/Content/__ExternalActors__/Practic4/D/S4/TXC9U9RJAT875C4Y2U5VEY.uasset",
				"C:/Repository/Unreal_git/Practic4/Content/__ExternalActors__/Practic4/C/XF/F4U2AA9A16P0B7O4AXU58Y.uasset",
				"C:/Repository/Unreal_git/Practic4/Content/__ExternalActors__/Practic4/7/1H/QVBD3SBSES91QSAL7ITQVO.uasset",
				"C:/Repository/Unreal_git/Practic4/Content/__ExternalActors__/Practic4/5/SW/6WZD7ACBB8HA903AT5OC42.uasset",
				"C:/Repository/Unreal_git/Practic4/Content/__ExternalActors__/Practic4/6/YT/UELS6JVFUR93W1X9562L69.uasset",
				"C:/Repository/Unreal_git/Practic4/Content/__ExternalActors__/Practic4/0/JL/MQBOHCWG9YPTZ8PHJ7AVN7.uasset",
				"C:/Repository/Unreal_git/Practic4/Content/__ExternalActors__/Practic4/A/8H/YAH3JSNPZJA1DLL41MA9KQ.uasset",
				"C:/Repository/Unreal_git/Practic4/Content/__ExternalActors__/Practic4/8/MT/J28L07XI0Q9953KW9GALY5.uasset",
				"C:/Repository/Unreal_git/Practic4/Content/__ExternalActors__/Practic4/B/0C/MH8VSIYKM737ZXMXW4NL2O.uasset",
				"C:/Repository/Unreal_git/Practic4/Content/__ExternalActors__/Practic4/E/0H/I7M0L0XM1FUQY2OQSE0RHK.uasset",
				"C:/Repository/Unreal_git/Practic4/Content/__ExternalActors__/Practic4/E/EG/606JJWPFIWO7TYSH6111D9.uasset",
				"C:/Repository/Unreal_git/Practic4/Content/__ExternalActors__/Practic4/4/T1/7ILE2JULVFWJNRVNJC9N1W.uasset",
				"C:/Repository/Unreal_git/Practic4/Content/__ExternalActors__/Practic4/7/XB/EQIUHF9Y89ALDVSEFY16XA.uasset",
				"C:/Repository/Unreal_git/Practic4/Content/__ExternalActors__/Practic4/D/9X/NNNVZ1P0ULH17TQ8TY1IZ7.uasset",
				"C:/Repository/Unreal_git/Practic4/Content/__ExternalActors__/Practic4/B/MZ/S50LC1F80U07CS8XYAE7MA.uasset",
				"C:/Repository/Unreal_git/Practic4/Content/__ExternalActors__/Practic4/5/6Y/9V3Q9K81UJNM2GBH7W5VJL.uasset",
				"C:/Repository/Unreal_git/Practic4/Content/__ExternalActors__/Practic4/A/6O/EACMP9WLU5H3YOMX5PFZM0.uasset",
				"C:/Repository/Unreal_git/Practic4/Content/__ExternalActors__/Practic4/0/HQ/7G2DT9PNSKU7E8ZW8DMAI3.uasset",
				"C:/Repository/Unreal_git/Practic4/Content/__ExternalActors__/Practic4/8/G0/U8GX5JS1UHJTWGQ6OE33DP.uasset",
				"C:/Repository/Unreal_git/Practic4/Content/__ExternalActors__/Practic4/7/IG/P8S3F23XCOVWK09O9BGYLZ.uasset",
				"C:/Repository/Unreal_git/Practic4/Content/__ExternalActors__/Practic4/4/3V/WS6QN311E85I7TM1M5EFCX.uasset",
				"C:/Repository/Unreal_git/Practic4/Content/__ExternalActors__/Practic4/6/5C/FC53C5VMRKGMO1AXAZS4ML.uasset",
				"C:/Repository/Unreal_git/Practic4/Content/__ExternalActors__/Practic4/1/C6/PA4DGRTM26LBXAOJO5XXZB.uasset",
				"C:/Repository/Unreal_git/Practic4/Content/__ExternalActors__/Practic4/E/HV/JE36NW6XRHBOVG6XFW627K.uasset",
				"C:/Repository/Unreal_git/Practic4/Content/__ExternalActors__/Practic4/B/FD/GCN30VKVZQONE88ODOKZTI.uasset",
				"C:/Repository/Unreal_git/Practic4/Content/__ExternalActors__/Practic4/C/8H/GN5XI8U9V2RDZ5NIWVA04G.uasset",
				"C:/Repository/Unreal_git/Practic4/Content/__ExternalActors__/Practic4/C/B1/UYIUA6NSJ7ICYTV19U5D32.uasset",
				"C:/Repository/Unreal_git/Practic4/Content/__ExternalActors__/Practic4/D/QQ/EQ2JFIFEQOBGV3Z6OK5XH2.uasset",
				"C:/Repository/Unreal_git/Practic4/Content/__ExternalActors__/Practic4/D/EF/XLKAVV8Z3ZWF315MIJIW9E.uasset",
				"C:/Repository/Unreal_git/Practic4/Content/__ExternalActors__/Practic4/D/1F/6KEQ2PJY6TCNT1W49W1BKL.uasset",
				"C:/Repository/Unreal_git/Practic4/Content/__ExternalActors__/Practic4/E/GH/JKHLOE6F3LQV5AKD7JP82N.uasset",
				"C:/Repository/Unreal_git/Practic4/Content/__ExternalActors__/Practic4/E/H5/IKSRZDNV25SA8RDEQITMI0.uasset",
				"C:/Repository/Unreal_git/Practic4/Content/__ExternalActors__/Practic4/C/M8/B39R42CFQ2RT6JEEFSXVOL.uasset",
				"C:/Repository/Unreal_git/Practic4/Content/__ExternalActors__/Practic4/2/41/U9KE83BE19N2VAHE2RKS3O.uasset",
				"C:/Repository/Unreal_git/Practic4/Content/__ExternalActors__/Practic4/8/YL/1PW4M33T4NLSIGKZ7T8HAE.uasset",
				"C:/Repository/Unreal_git/Practic4/Content/__ExternalActors__/Practic4/1/OU/UI40C297QI5A5DDQF8WTWD.uasset",
				"C:/Repository/Unreal_git/Practic4/Content/__ExternalActors__/Practic4/9/H2/MSILZL2MFMFM6BOFRU03ZD.uasset",
				"C:/Repository/Unreal_git/Practic4/Content/__ExternalActors__/Practic4/7/RH/SAVG2SKNLFRZZE0PQ4AGB3.uasset",
				"C:/Repository/Unreal_git/Practic4/Content/__ExternalActors__/Practic4/5/04/9AW5QSSV955PQO86UF0T57.uasset",
				"C:/Repository/Unreal_git/Practic4/Content/__ExternalActors__/Practic4/D/YO/UJ2J0RULXTQT2JIPC6KZ9L.uasset",
				"C:/Repository/Unreal_git/Practic4/Content/__ExternalActors__/Practic4/5/QC/E7B0IKA567PN9CHPTX6SOR.uasset",
				"C:/Repository/Unreal_git/Practic4/Content/Practic4.umap"
			]
		}
	]
}